info face="Milano" size="0" bold=0 italic=0 charset= unicode=0 stretchH=100 smooth=1 aa=1 padding=0,0,0,0 spacing=2,2
common lineHeight=80 base=65 scaleW=512 scaleH=512 pages=1 packed=0
page id=0 file="PTModelFont_ID29194.png"
chars count=94
char id=91 x=0 y=0 width=15 height=56 xoffset=2 yoffset=16 xadvance=14 page=0 chnl=0  letter="["
char id=93 x=19 y=0 width=15 height=56 xoffset=1 yoffset=16 xadvance=14 page=0 chnl=0  letter="]"
char id=123 x=38 y=0 width=19 height=56 xoffset=1 yoffset=16 xadvance=17 page=0 chnl=0  letter="{"
char id=125 x=61 y=0 width=18 height=56 xoffset=1 yoffset=16 xadvance=17 page=0 chnl=0  letter="}"
char id=124 x=83 y=0 width=7 height=48 xoffset=2 yoffset=15 xadvance=6 page=0 chnl=0  letter="|"
char id=40 x=94 y=0 width=12 height=46 xoffset=5 yoffset=8 xadvance=17 page=0 chnl=0  letter="("
char id=41 x=110 y=0 width=12 height=46 xoffset=2 yoffset=8 xadvance=17 page=0 chnl=0  letter=")"
char id=106 x=126 y=0 width=18 height=46 xoffset=-3 yoffset=23 xadvance=13 page=0 chnl=0  letter="j"
char id=64 x=148 y=0 width=33 height=39 xoffset=2 yoffset=21 xadvance=32 page=0 chnl=0  letter="@"
char id=81 x=185 y=0 width=25 height=39 xoffset=2 yoffset=20 xadvance=25 page=0 chnl=0  letter="Q"
char id=48 x=214 y=0 width=24 height=38 xoffset=2 yoffset=20 xadvance=25 page=0 chnl=0  letter="0"
char id=49 x=242 y=0 width=12 height=38 xoffset=4 yoffset=20 xadvance=17 page=0 chnl=0  letter="1"
char id=50 x=258 y=0 width=24 height=38 xoffset=3 yoffset=20 xadvance=25 page=0 chnl=0  letter="2"
char id=52 x=286 y=0 width=24 height=38 xoffset=2 yoffset=20 xadvance=24 page=0 chnl=0  letter="4"
char id=54 x=314 y=0 width=24 height=38 xoffset=2 yoffset=20 xadvance=25 page=0 chnl=0  letter="6"
char id=56 x=342 y=0 width=24 height=38 xoffset=2 yoffset=20 xadvance=25 page=0 chnl=0  letter="8"
char id=57 x=370 y=0 width=24 height=38 xoffset=2 yoffset=20 xadvance=25 page=0 chnl=0  letter="9"
char id=65 x=398 y=0 width=24 height=38 xoffset=2 yoffset=20 xadvance=25 page=0 chnl=0  letter="A"
char id=66 x=426 y=0 width=25 height=38 xoffset=2 yoffset=20 xadvance=26 page=0 chnl=0  letter="B"
char id=67 x=455 y=0 width=24 height=38 xoffset=2 yoffset=20 xadvance=25 page=0 chnl=0  letter="C"
char id=69 x=483 y=0 width=24 height=38 xoffset=2 yoffset=20 xadvance=24 page=0 chnl=0  letter="E"
char id=70 x=0 y=60 width=24 height=38 xoffset=2 yoffset=20 xadvance=25 page=0 chnl=0  letter="F"
char id=71 x=28 y=60 width=24 height=38 xoffset=2 yoffset=20 xadvance=25 page=0 chnl=0  letter="G"
char id=72 x=56 y=60 width=24 height=38 xoffset=2 yoffset=20 xadvance=25 page=0 chnl=0  letter="H"
char id=73 x=84 y=60 width=8 height=38 xoffset=3 yoffset=20 xadvance=10 page=0 chnl=0  letter="I"
char id=74 x=96 y=60 width=20 height=38 xoffset=2 yoffset=20 xadvance=21 page=0 chnl=0  letter="J"
char id=75 x=120 y=60 width=24 height=38 xoffset=2 yoffset=20 xadvance=25 page=0 chnl=0  letter="K"
char id=76 x=148 y=60 width=22 height=38 xoffset=2 yoffset=20 xadvance=23 page=0 chnl=0  letter="L"
char id=77 x=174 y=60 width=28 height=38 xoffset=2 yoffset=20 xadvance=29 page=0 chnl=0  letter="M"
char id=78 x=206 y=60 width=24 height=38 xoffset=2 yoffset=20 xadvance=25 page=0 chnl=0  letter="N"
char id=79 x=234 y=60 width=24 height=38 xoffset=2 yoffset=20 xadvance=25 page=0 chnl=0  letter="O"
char id=80 x=262 y=60 width=24 height=38 xoffset=2 yoffset=20 xadvance=24 page=0 chnl=0  letter="P"
char id=82 x=290 y=60 width=24 height=38 xoffset=2 yoffset=20 xadvance=25 page=0 chnl=0  letter="R"
char id=83 x=318 y=60 width=24 height=38 xoffset=2 yoffset=20 xadvance=25 page=0 chnl=0  letter="S"
char id=84 x=346 y=60 width=23 height=38 xoffset=3 yoffset=20 xadvance=24 page=0 chnl=0  letter="T"
char id=85 x=373 y=60 width=24 height=38 xoffset=2 yoffset=20 xadvance=25 page=0 chnl=0  letter="U"
char id=86 x=401 y=60 width=24 height=38 xoffset=2 yoffset=20 xadvance=25 page=0 chnl=0  letter="V"
char id=88 x=429 y=60 width=24 height=38 xoffset=2 yoffset=20 xadvance=25 page=0 chnl=0  letter="X"
char id=89 x=457 y=60 width=26 height=38 xoffset=1 yoffset=20 xadvance=25 page=0 chnl=0  letter="Y"
char id=90 x=0 y=102 width=23 height=38 xoffset=1 yoffset=20 xadvance=22 page=0 chnl=0  letter="Z"
char id=33 x=487 y=60 width=11 height=37 xoffset=2 yoffset=21 xadvance=10 page=0 chnl=0  letter="!"
char id=51 x=27 y=102 width=24 height=37 xoffset=3 yoffset=21 xadvance=25 page=0 chnl=0  letter="3"
char id=53 x=55 y=102 width=24 height=37 xoffset=3 yoffset=21 xadvance=25 page=0 chnl=0  letter="5"
char id=63 x=83 y=102 width=18 height=37 xoffset=2 yoffset=21 xadvance=17 page=0 chnl=0  letter="?"
char id=68 x=105 y=102 width=24 height=37 xoffset=2 yoffset=21 xadvance=25 page=0 chnl=0  letter="D"
char id=87 x=133 y=102 width=33 height=37 xoffset=2 yoffset=21 xadvance=33 page=0 chnl=0  letter="W"
char id=98 x=170 y=102 width=24 height=37 xoffset=2 yoffset=21 xadvance=24 page=0 chnl=0  letter="b"
char id=100 x=198 y=102 width=25 height=37 xoffset=2 yoffset=21 xadvance=23 page=0 chnl=0  letter="d"
char id=102 x=227 y=102 width=18 height=37 xoffset=1 yoffset=21 xadvance=16 page=0 chnl=0  letter="f"
char id=103 x=249 y=102 width=25 height=37 xoffset=1 yoffset=32 xadvance=23 page=0 chnl=0  letter="g"
char id=104 x=278 y=102 width=24 height=37 xoffset=2 yoffset=21 xadvance=24 page=0 chnl=0  letter="h"
char id=107 x=306 y=102 width=23 height=37 xoffset=2 yoffset=21 xadvance=23 page=0 chnl=0  letter="k"
char id=108 x=333 y=102 width=8 height=37 xoffset=2 yoffset=21 xadvance=9 page=0 chnl=0  letter="l"
char id=112 x=345 y=102 width=24 height=37 xoffset=2 yoffset=32 xadvance=24 page=0 chnl=0  letter="p"
char id=113 x=373 y=102 width=24 height=37 xoffset=2 yoffset=32 xadvance=24 page=0 chnl=0  letter="q"
char id=35 x=401 y=102 width=35 height=36 xoffset=1 yoffset=22 xadvance=35 page=0 chnl=0  letter="#"
char id=37 x=440 y=102 width=18 height=36 xoffset=4 yoffset=15 xadvance=21 page=0 chnl=0  letter="%"
char id=47 x=462 y=102 width=16 height=36 xoffset=5 yoffset=15 xadvance=21 page=0 chnl=0  letter="/"
char id=55 x=482 y=102 width=23 height=36 xoffset=2 yoffset=21 xadvance=23 page=0 chnl=0  letter="7"
char id=121 x=0 y=144 width=24 height=36 xoffset=1 yoffset=32 xadvance=24 page=0 chnl=0  letter="y"
char id=38 x=28 y=144 width=24 height=35 xoffset=2 yoffset=23 xadvance=22 page=0 chnl=0  letter="&"
char id=105 x=56 y=144 width=9 height=35 xoffset=2 yoffset=23 xadvance=10 page=0 chnl=0  letter="i"
char id=116 x=69 y=144 width=19 height=33 xoffset=2 yoffset=25 xadvance=18 page=0 chnl=0  letter="t"
char id=36 x=92 y=144 width=22 height=29 xoffset=1 yoffset=23 xadvance=21 page=0 chnl=0  letter="$"
char id=59 x=118 y=144 width=11 height=28 xoffset=2 yoffset=35 xadvance=11 page=0 chnl=0  letter=";"
char id=60 x=133 y=144 width=22 height=27 xoffset=0 yoffset=26 xadvance=19 page=0 chnl=0  letter="<"
char id=62 x=159 y=144 width=22 height=27 xoffset=1 yoffset=26 xadvance=19 page=0 chnl=0  letter=">"
char id=58 x=185 y=144 width=11 height=26 xoffset=2 yoffset=32 xadvance=10 page=0 chnl=0  letter=":"
char id=97 x=200 y=144 width=24 height=26 xoffset=3 yoffset=32 xadvance=24 page=0 chnl=0  letter="a"
char id=99 x=228 y=144 width=24 height=26 xoffset=2 yoffset=32 xadvance=23 page=0 chnl=0  letter="c"
char id=101 x=256 y=144 width=23 height=26 xoffset=2 yoffset=32 xadvance=24 page=0 chnl=0  letter="e"
char id=109 x=283 y=144 width=37 height=26 xoffset=2 yoffset=32 xadvance=37 page=0 chnl=0  letter="m"
char id=110 x=324 y=144 width=24 height=26 xoffset=2 yoffset=32 xadvance=24 page=0 chnl=0  letter="n"
char id=111 x=352 y=144 width=25 height=26 xoffset=2 yoffset=32 xadvance=24 page=0 chnl=0  letter="o"
char id=114 x=381 y=144 width=19 height=26 xoffset=2 yoffset=32 xadvance=19 page=0 chnl=0  letter="r"
char id=115 x=404 y=144 width=22 height=26 xoffset=1 yoffset=32 xadvance=21 page=0 chnl=0  letter="s"
char id=117 x=430 y=144 width=24 height=26 xoffset=2 yoffset=32 xadvance=24 page=0 chnl=0  letter="u"
char id=118 x=458 y=144 width=24 height=26 xoffset=2 yoffset=32 xadvance=25 page=0 chnl=0  letter="v"
char id=119 x=0 y=184 width=37 height=26 xoffset=2 yoffset=32 xadvance=37 page=0 chnl=0  letter="w"
char id=120 x=41 y=184 width=24 height=26 xoffset=2 yoffset=32 xadvance=24 page=0 chnl=0  letter="x"
char id=122 x=69 y=184 width=24 height=26 xoffset=2 yoffset=32 xadvance=25 page=0 chnl=0  letter="z"
char id=43 x=97 y=184 width=24 height=25 xoffset=3 yoffset=30 xadvance=27 page=0 chnl=0  letter="+"
char id=42 x=486 y=144 width=20 height=19 xoffset=1 yoffset=23 xadvance=19 page=0 chnl=0  letter="*"
char id=44 x=125 y=184 width=11 height=17 xoffset=1 yoffset=46 xadvance=10 page=0 chnl=0  letter=","
char id=94 x=140 y=184 width=19 height=16 xoffset=0 yoffset=23 xadvance=16 page=0 chnl=0  letter="^"
char id=61 x=163 y=184 width=23 height=14 xoffset=2 yoffset=35 xadvance=22 page=0 chnl=0  letter="="
char id=34 x=190 y=184 width=12 height=13 xoffset=2 yoffset=14 xadvance=13 page=0 chnl=0  letter="""
char id=39 x=206 y=184 width=8 height=13 xoffset=2 yoffset=14 xadvance=9 page=0 chnl=0  letter="'"
char id=96 x=218 y=184 width=12 height=12 xoffset=0 yoffset=15 xadvance=10 page=0 chnl=0  letter="`"
char id=46 x=234 y=184 width=11 height=11 xoffset=1 yoffset=47 xadvance=8 page=0 chnl=0  letter="."
char id=126 x=249 y=184 width=28 height=10 xoffset=2 yoffset=31 xadvance=27 page=0 chnl=0  letter="~"
char id=95 x=281 y=184 width=25 height=7 xoffset=0 yoffset=53 xadvance=22 page=0 chnl=0  letter="_"
char id=45 x=310 y=184 width=17 height=6 xoffset=1 yoffset=40 xadvance=15 page=0 chnl=0  letter="-"
char id=32 x=148 y=43 width=0 height=0 xoffset=0 yoffset=112 xadvance=14 page=0 chnl=0  letter=" "
kernings count=0
