info face="Bluberry Regular" size="0" bold=0 italic=0 charset= unicode=0 stretchH=100 smooth=1 aa=1 padding=0,0,0,0 spacing=2,2
common lineHeight=80 base=65 scaleW=512 scaleH=512 pages=1 packed=0
page id=0 file="PTModelFont_ID19608.png"
chars count=94
char id=106 x=0 y=0 width=25 height=69 xoffset=1 yoffset=11 xadvance=22 page=0 chnl=0  letter="j"
char id=64 x=29 y=0 width=71 height=65 xoffset=2 yoffset=11 xadvance=69 page=0 chnl=0  letter="@"
char id=36 x=104 y=0 width=32 height=59 xoffset=1 yoffset=7 xadvance=30 page=0 chnl=0  letter="$"
char id=103 x=140 y=0 width=38 height=56 xoffset=2 yoffset=24 xadvance=37 page=0 chnl=0  letter="g"
char id=113 x=182 y=0 width=40 height=56 xoffset=2 yoffset=23 xadvance=38 page=0 chnl=0  letter="q"
char id=121 x=226 y=0 width=37 height=56 xoffset=2 yoffset=23 xadvance=37 page=0 chnl=0  letter="y"
char id=125 x=267 y=0 width=23 height=56 xoffset=2 yoffset=7 xadvance=22 page=0 chnl=0  letter="}"
char id=112 x=294 y=0 width=39 height=55 xoffset=2 yoffset=24 xadvance=38 page=0 chnl=0  letter="p"
char id=123 x=337 y=0 width=23 height=55 xoffset=2 yoffset=8 xadvance=24 page=0 chnl=0  letter="{"
char id=91 x=364 y=0 width=20 height=54 xoffset=4 yoffset=8 xadvance=22 page=0 chnl=0  letter="["
char id=93 x=388 y=0 width=19 height=54 xoffset=3 yoffset=8 xadvance=20 page=0 chnl=0  letter="]"
char id=33 x=411 y=0 width=14 height=53 xoffset=4 yoffset=9 xadvance=17 page=0 chnl=0  letter="!"
char id=63 x=429 y=0 width=30 height=53 xoffset=1 yoffset=9 xadvance=28 page=0 chnl=0  letter="?"
char id=108 x=463 y=0 width=14 height=53 xoffset=3 yoffset=9 xadvance=15 page=0 chnl=0  letter="l"
char id=98 x=0 y=73 width=38 height=52 xoffset=2 yoffset=9 xadvance=37 page=0 chnl=0  letter="b"
char id=100 x=42 y=73 width=40 height=52 xoffset=2 yoffset=9 xadvance=38 page=0 chnl=0  letter="d"
char id=102 x=481 y=0 width=25 height=52 xoffset=2 yoffset=9 xadvance=25 page=0 chnl=0  letter="f"
char id=104 x=86 y=73 width=35 height=52 xoffset=2 yoffset=9 xadvance=35 page=0 chnl=0  letter="h"
char id=107 x=125 y=73 width=30 height=52 xoffset=2 yoffset=9 xadvance=28 page=0 chnl=0  letter="k"
char id=116 x=159 y=73 width=27 height=52 xoffset=2 yoffset=9 xadvance=25 page=0 chnl=0  letter="t"
char id=38 x=190 y=73 width=42 height=51 xoffset=2 yoffset=12 xadvance=41 page=0 chnl=0  letter="&"
char id=48 x=236 y=73 width=39 height=51 xoffset=2 yoffset=11 xadvance=38 page=0 chnl=0  letter="0"
char id=62 x=279 y=73 width=32 height=51 xoffset=1 yoffset=11 xadvance=30 page=0 chnl=0  letter=">"
char id=73 x=315 y=73 width=15 height=51 xoffset=4 yoffset=11 xadvance=19 page=0 chnl=0  letter="I"
char id=79 x=334 y=73 width=38 height=51 xoffset=2 yoffset=11 xadvance=37 page=0 chnl=0  letter="O"
char id=81 x=376 y=73 width=42 height=51 xoffset=2 yoffset=11 xadvance=40 page=0 chnl=0  letter="Q"
char id=88 x=422 y=73 width=38 height=51 xoffset=1 yoffset=11 xadvance=36 page=0 chnl=0  letter="X"
char id=90 x=464 y=73 width=36 height=51 xoffset=2 yoffset=11 xadvance=34 page=0 chnl=0  letter="Z"
char id=105 x=0 y=129 width=19 height=51 xoffset=2 yoffset=11 xadvance=18 page=0 chnl=0  letter="i"
char id=37 x=23 y=129 width=42 height=50 xoffset=3 yoffset=11 xadvance=42 page=0 chnl=0  letter="%"
char id=41 x=69 y=129 width=25 height=50 xoffset=2 yoffset=12 xadvance=25 page=0 chnl=0  letter=")"
char id=50 x=98 y=129 width=34 height=50 xoffset=2 yoffset=12 xadvance=34 page=0 chnl=0  letter="2"
char id=51 x=136 y=129 width=32 height=50 xoffset=2 yoffset=11 xadvance=32 page=0 chnl=0  letter="3"
char id=53 x=172 y=129 width=34 height=50 xoffset=2 yoffset=11 xadvance=34 page=0 chnl=0  letter="5"
char id=55 x=210 y=129 width=37 height=50 xoffset=2 yoffset=11 xadvance=37 page=0 chnl=0  letter="7"
char id=60 x=251 y=129 width=32 height=50 xoffset=1 yoffset=11 xadvance=29 page=0 chnl=0  letter="<"
char id=65 x=287 y=129 width=41 height=50 xoffset=1 yoffset=11 xadvance=37 page=0 chnl=0  letter="A"
char id=66 x=332 y=129 width=37 height=50 xoffset=1 yoffset=11 xadvance=35 page=0 chnl=0  letter="B"
char id=69 x=373 y=129 width=34 height=50 xoffset=2 yoffset=11 xadvance=32 page=0 chnl=0  letter="E"
char id=72 x=411 y=129 width=37 height=50 xoffset=2 yoffset=11 xadvance=34 page=0 chnl=0  letter="H"
char id=76 x=452 y=129 width=34 height=50 xoffset=2 yoffset=11 xadvance=33 page=0 chnl=0  letter="L"
char id=77 x=0 y=184 width=38 height=50 xoffset=2 yoffset=11 xadvance=36 page=0 chnl=0  letter="M"
char id=78 x=42 y=184 width=36 height=50 xoffset=2 yoffset=12 xadvance=34 page=0 chnl=0  letter="N"
char id=80 x=82 y=184 width=33 height=50 xoffset=1 yoffset=11 xadvance=31 page=0 chnl=0  letter="P"
char id=82 x=119 y=184 width=34 height=50 xoffset=1 yoffset=11 xadvance=32 page=0 chnl=0  letter="R"
char id=85 x=157 y=184 width=36 height=50 xoffset=2 yoffset=11 xadvance=34 page=0 chnl=0  letter="U"
char id=86 x=197 y=184 width=39 height=50 xoffset=1 yoffset=11 xadvance=37 page=0 chnl=0  letter="V"
char id=40 x=240 y=184 width=25 height=49 xoffset=3 yoffset=12 xadvance=26 page=0 chnl=0  letter="("
char id=49 x=269 y=184 width=21 height=49 xoffset=2 yoffset=12 xadvance=22 page=0 chnl=0  letter="1"
char id=52 x=294 y=184 width=36 height=49 xoffset=2 yoffset=12 xadvance=36 page=0 chnl=0  letter="4"
char id=54 x=334 y=184 width=35 height=49 xoffset=2 yoffset=12 xadvance=34 page=0 chnl=0  letter="6"
char id=56 x=373 y=184 width=35 height=49 xoffset=1 yoffset=12 xadvance=33 page=0 chnl=0  letter="8"
char id=57 x=412 y=184 width=35 height=49 xoffset=2 yoffset=12 xadvance=35 page=0 chnl=0  letter="9"
char id=67 x=451 y=184 width=38 height=49 xoffset=2 yoffset=12 xadvance=36 page=0 chnl=0  letter="C"
char id=68 x=0 y=238 width=35 height=49 xoffset=1 yoffset=12 xadvance=33 page=0 chnl=0  letter="D"
char id=70 x=39 y=238 width=32 height=49 xoffset=1 yoffset=12 xadvance=30 page=0 chnl=0  letter="F"
char id=71 x=75 y=238 width=39 height=49 xoffset=1 yoffset=12 xadvance=37 page=0 chnl=0  letter="G"
char id=74 x=118 y=238 width=35 height=49 xoffset=2 yoffset=12 xadvance=35 page=0 chnl=0  letter="J"
char id=75 x=157 y=238 width=38 height=49 xoffset=2 yoffset=12 xadvance=36 page=0 chnl=0  letter="K"
char id=83 x=199 y=238 width=32 height=49 xoffset=1 yoffset=12 xadvance=30 page=0 chnl=0  letter="S"
char id=84 x=235 y=238 width=37 height=49 xoffset=1 yoffset=12 xadvance=35 page=0 chnl=0  letter="T"
char id=87 x=276 y=238 width=43 height=49 xoffset=1 yoffset=12 xadvance=41 page=0 chnl=0  letter="W"
char id=89 x=323 y=238 width=36 height=49 xoffset=1 yoffset=12 xadvance=34 page=0 chnl=0  letter="Y"
char id=47 x=363 y=238 width=31 height=46 xoffset=1 yoffset=15 xadvance=29 page=0 chnl=0  letter="/"
char id=124 x=490 y=129 width=13 height=46 xoffset=3 yoffset=15 xadvance=15 page=0 chnl=0  letter="|"
char id=35 x=398 y=238 width=48 height=41 xoffset=2 yoffset=19 xadvance=48 page=0 chnl=0  letter="#"
char id=115 x=450 y=238 width=32 height=40 xoffset=0 yoffset=23 xadvance=28 page=0 chnl=0  letter="s"
char id=111 x=0 y=291 width=35 height=39 xoffset=1 yoffset=23 xadvance=34 page=0 chnl=0  letter="o"
char id=109 x=39 y=291 width=54 height=38 xoffset=3 yoffset=24 xadvance=53 page=0 chnl=0  letter="m"
char id=110 x=97 y=291 width=36 height=38 xoffset=1 yoffset=24 xadvance=34 page=0 chnl=0  letter="n"
char id=117 x=137 y=291 width=36 height=38 xoffset=2 yoffset=24 xadvance=36 page=0 chnl=0  letter="u"
char id=119 x=177 y=291 width=52 height=38 xoffset=2 yoffset=24 xadvance=51 page=0 chnl=0  letter="w"
char id=97 x=233 y=291 width=39 height=37 xoffset=2 yoffset=24 xadvance=39 page=0 chnl=0  letter="a"
char id=99 x=276 y=291 width=31 height=37 xoffset=1 yoffset=24 xadvance=29 page=0 chnl=0  letter="c"
char id=101 x=311 y=291 width=35 height=37 xoffset=1 yoffset=24 xadvance=33 page=0 chnl=0  letter="e"
char id=114 x=350 y=291 width=29 height=37 xoffset=2 yoffset=24 xadvance=28 page=0 chnl=0  letter="r"
char id=118 x=383 y=291 width=39 height=37 xoffset=3 yoffset=24 xadvance=39 page=0 chnl=0  letter="v"
char id=120 x=426 y=291 width=38 height=37 xoffset=1 yoffset=24 xadvance=36 page=0 chnl=0  letter="x"
char id=122 x=468 y=291 width=38 height=37 xoffset=2 yoffset=24 xadvance=37 page=0 chnl=0  letter="z"
char id=59 x=493 y=184 width=14 height=35 xoffset=1 yoffset=30 xadvance=12 page=0 chnl=0  letter=";"
char id=43 x=0 y=334 width=32 height=33 xoffset=2 yoffset=26 xadvance=32 page=0 chnl=0  letter="+"
char id=58 x=486 y=238 width=13 height=32 xoffset=2 yoffset=30 xadvance=13 page=0 chnl=0  letter=":"
char id=94 x=36 y=334 width=41 height=28 xoffset=2 yoffset=12 xadvance=41 page=0 chnl=0  letter="^"
char id=61 x=81 y=334 width=32 height=26 xoffset=2 yoffset=28 xadvance=30 page=0 chnl=0  letter="="
char id=42 x=117 y=334 width=24 height=22 xoffset=2 yoffset=15 xadvance=24 page=0 chnl=0  letter="*"
char id=126 x=145 y=334 width=41 height=21 xoffset=4 yoffset=37 xadvance=44 page=0 chnl=0  letter="~"
char id=39 x=190 y=334 width=13 height=15 xoffset=2 yoffset=18 xadvance=13 page=0 chnl=0  letter="'"
char id=44 x=207 y=334 width=14 height=15 xoffset=2 yoffset=50 xadvance=12 page=0 chnl=0  letter=","
char id=34 x=225 y=334 width=24 height=14 xoffset=8 yoffset=18 xadvance=30 page=0 chnl=0  letter="""
char id=96 x=253 y=334 width=15 height=14 xoffset=4 yoffset=12 xadvance=18 page=0 chnl=0  letter="`"
char id=95 x=272 y=334 width=49 height=13 xoffset=3 yoffset=61 xadvance=49 page=0 chnl=0  letter="_"
char id=45 x=325 y=334 width=29 height=12 xoffset=2 yoffset=36 xadvance=29 page=0 chnl=0  letter="-"
char id=46 x=358 y=334 width=14 height=11 xoffset=3 yoffset=50 xadvance=14 page=0 chnl=0  letter="."
char id=32 x=104 y=63 width=0 height=0 xoffset=0 yoffset=115 xadvance=22 page=0 chnl=0  letter=" "
kernings count=332
kerning first=106 second=115 amount=2
kerning first=106 second=46 amount=-2
kerning first=64 second=121 amount=2
kerning first=103 second=118 amount=-2
kerning first=121 second=97 amount=-2
kerning first=112 second=108 amount=-2
kerning first=112 second=116 amount=-2
kerning first=112 second=97 amount=-2
kerning first=112 second=44 amount=-4
kerning first=112 second=46 amount=-4
kerning first=108 second=106 amount=-2
kerning first=108 second=64 amount=6
kerning first=108 second=105 amount=2
kerning first=98 second=106 amount=-8
kerning first=98 second=108 amount=-2
kerning first=98 second=100 amount=-2
kerning first=98 second=104 amount=-2
kerning first=98 second=111 amount=-2
kerning first=98 second=97 amount=-2
kerning first=98 second=118 amount=-4
kerning first=98 second=44 amount=-4
kerning first=98 second=46 amount=-6
kerning first=100 second=106 amount=-4
kerning first=100 second=105 amount=2
kerning first=100 second=114 amount=2
kerning first=100 second=46 amount=-2
kerning first=102 second=106 amount=-4
kerning first=102 second=103 amount=-2
kerning first=102 second=102 amount=-4
kerning first=102 second=111 amount=-2
kerning first=102 second=97 amount=-4
kerning first=102 second=101 amount=-2
kerning first=102 second=118 amount=-4
kerning first=102 second=44 amount=-4
kerning first=102 second=46 amount=-8
kerning first=104 second=106 amount=-4
kerning first=104 second=116 amount=-2
kerning first=104 second=97 amount=-2
kerning first=104 second=118 amount=-4
kerning first=107 second=106 amount=-4
kerning first=107 second=103 amount=-4
kerning first=107 second=100 amount=-2
kerning first=107 second=111 amount=-4
kerning first=107 second=97 amount=-2
kerning first=107 second=99 amount=-2
kerning first=107 second=101 amount=-2
kerning first=116 second=106 amount=-4
kerning first=116 second=104 amount=-2
kerning first=116 second=116 amount=-4
kerning first=116 second=111 amount=-2
kerning first=116 second=117 amount=-2
kerning first=116 second=97 amount=-4
kerning first=116 second=101 amount=-2
kerning first=116 second=46 amount=-2
kerning first=73 second=79 amount=-2
kerning first=79 second=88 amount=-2
kerning first=79 second=65 amount=-4
kerning first=79 second=86 amount=-2
kerning first=79 second=84 amount=-4
kerning first=79 second=87 amount=-2
kerning first=79 second=89 amount=-4
kerning first=79 second=97 amount=-2
kerning first=79 second=118 amount=-2
kerning first=79 second=44 amount=-4
kerning first=79 second=46 amount=-6
kerning first=81 second=85 amount=-2
kerning first=88 second=106 amount=-4
kerning first=88 second=103 amount=-2
kerning first=88 second=102 amount=-2
kerning first=88 second=116 amount=-2
kerning first=88 second=111 amount=-2
kerning first=88 second=97 amount=-2
kerning first=88 second=101 amount=-2
kerning first=90 second=106 amount=-8
kerning first=90 second=102 amount=-2
kerning first=90 second=97 amount=-4
kerning first=105 second=106 amount=-4
kerning first=105 second=103 amount=-2
kerning first=105 second=100 amount=-2
kerning first=105 second=116 amount=-2
kerning first=105 second=97 amount=-2
kerning first=105 second=118 amount=-4
kerning first=65 second=116 amount=-2
kerning first=65 second=79 amount=-2
kerning first=65 second=85 amount=-2
kerning first=65 second=86 amount=-8
kerning first=65 second=83 amount=-2
kerning first=65 second=84 amount=-8
kerning first=65 second=87 amount=-4
kerning first=65 second=89 amount=-10
kerning first=65 second=118 amount=-4
kerning first=66 second=65 amount=-2
kerning first=66 second=86 amount=-4
kerning first=66 second=87 amount=-2
kerning first=66 second=89 amount=-8
kerning first=66 second=44 amount=-2
kerning first=66 second=46 amount=-2
kerning first=69 second=79 amount=-2
kerning first=69 second=67 amount=-2
kerning first=69 second=118 amount=-2
kerning first=76 second=73 amount=-2
kerning first=76 second=79 amount=-2
kerning first=76 second=86 amount=-6
kerning first=76 second=67 amount=-2
kerning first=76 second=71 amount=-2
kerning first=76 second=84 amount=-6
kerning first=76 second=87 amount=-4
kerning first=76 second=89 amount=-10
kerning first=76 second=111 amount=-2
kerning first=76 second=97 amount=-2
kerning first=78 second=105 amount=2
kerning first=78 second=68 amount=4
kerning first=80 second=79 amount=-2
kerning first=80 second=65 amount=-8
kerning first=80 second=111 amount=-4
kerning first=80 second=97 amount=-6
kerning first=80 second=101 amount=-4
kerning first=80 second=59 amount=-2
kerning first=80 second=58 amount=-2
kerning first=80 second=44 amount=-4
kerning first=80 second=46 amount=-8
kerning first=82 second=100 amount=-2
kerning first=82 second=71 amount=-2
kerning first=82 second=89 amount=-2
kerning first=82 second=111 amount=-2
kerning first=82 second=117 amount=-2
kerning first=82 second=101 amount=-2
kerning first=85 second=71 amount=2
kerning first=85 second=115 amount=2
kerning first=85 second=46 amount=-2
kerning first=86 second=106 amount=-8
kerning first=86 second=103 amount=-4
kerning first=86 second=113 amount=-4
kerning first=86 second=112 amount=-2
kerning first=86 second=100 amount=-4
kerning first=86 second=102 amount=-2
kerning first=86 second=79 amount=-2
kerning first=86 second=65 amount=-6
kerning first=86 second=67 amount=-2
kerning first=86 second=71 amount=-2
kerning first=86 second=83 amount=-2
kerning first=86 second=115 amount=-2
kerning first=86 second=111 amount=-4
kerning first=86 second=109 amount=-4
kerning first=86 second=110 amount=-2
kerning first=86 second=117 amount=-2
kerning first=86 second=119 amount=-2
kerning first=86 second=97 amount=-6
kerning first=86 second=99 amount=-4
kerning first=86 second=101 amount=-4
kerning first=86 second=114 amount=-2
kerning first=86 second=118 amount=-2
kerning first=86 second=120 amount=-2
kerning first=86 second=122 amount=-4
kerning first=86 second=59 amount=-4
kerning first=86 second=58 amount=-2
kerning first=86 second=44 amount=-6
kerning first=86 second=46 amount=-8
kerning first=67 second=79 amount=-2
kerning first=67 second=65 amount=-4
kerning first=67 second=97 amount=-2
kerning first=67 second=44 amount=-2
kerning first=67 second=46 amount=-4
kerning first=68 second=73 amount=-2
kerning first=68 second=65 amount=-4
kerning first=68 second=86 amount=-4
kerning first=68 second=87 amount=-2
kerning first=68 second=89 amount=-4
kerning first=68 second=44 amount=-4
kerning first=68 second=46 amount=-4
kerning first=70 second=121 amount=-2
kerning first=70 second=79 amount=-4
kerning first=70 second=65 amount=-8
kerning first=70 second=67 amount=-4
kerning first=70 second=71 amount=-4
kerning first=70 second=111 amount=-6
kerning first=70 second=117 amount=-2
kerning first=70 second=97 amount=-8
kerning first=70 second=101 amount=-6
kerning first=70 second=114 amount=-2
kerning first=70 second=59 amount=-8
kerning first=70 second=58 amount=-6
kerning first=70 second=44 amount=-10
kerning first=70 second=46 amount=-12
kerning first=74 second=65 amount=-2
kerning first=74 second=97 amount=-2
kerning first=74 second=44 amount=-4
kerning first=74 second=46 amount=-4
kerning first=75 second=111 amount=-4
kerning first=75 second=117 amount=-4
kerning first=75 second=101 amount=-4
kerning first=83 second=73 amount=-2
kerning first=83 second=84 amount=-2
kerning first=83 second=97 amount=-2
kerning first=83 second=44 amount=-2
kerning first=83 second=46 amount=-4
kerning first=84 second=106 amount=-10
kerning first=84 second=103 amount=-4
kerning first=84 second=113 amount=-4
kerning first=84 second=121 amount=-4
kerning first=84 second=112 amount=-4
kerning first=84 second=98 amount=-2
kerning first=84 second=102 amount=-4
kerning first=84 second=79 amount=-2
kerning first=84 second=65 amount=-4
kerning first=84 second=67 amount=-2
kerning first=84 second=115 amount=-2
kerning first=84 second=111 amount=-4
kerning first=84 second=109 amount=-6
kerning first=84 second=110 amount=-4
kerning first=84 second=117 amount=-2
kerning first=84 second=119 amount=-4
kerning first=84 second=97 amount=-8
kerning first=84 second=99 amount=-6
kerning first=84 second=101 amount=-6
kerning first=84 second=120 amount=-4
kerning first=84 second=122 amount=-4
kerning first=84 second=59 amount=-8
kerning first=84 second=58 amount=-4
kerning first=84 second=44 amount=-10
kerning first=84 second=46 amount=-8
kerning first=87 second=106 amount=-10
kerning first=87 second=103 amount=-2
kerning first=87 second=113 amount=-2
kerning first=87 second=121 amount=-2
kerning first=87 second=100 amount=-4
kerning first=87 second=102 amount=-2
kerning first=87 second=116 amount=-2
kerning first=87 second=79 amount=-2
kerning first=87 second=105 amount=-2
kerning first=87 second=65 amount=-4
kerning first=87 second=67 amount=-2
kerning first=87 second=111 amount=-4
kerning first=87 second=109 amount=-4
kerning first=87 second=110 amount=-2
kerning first=87 second=117 amount=-2
kerning first=87 second=97 amount=-4
kerning first=87 second=99 amount=-2
kerning first=87 second=101 amount=-2
kerning first=87 second=114 amount=-2
kerning first=87 second=118 amount=-4
kerning first=87 second=120 amount=-2
kerning first=87 second=122 amount=-4
kerning first=87 second=59 amount=-2
kerning first=87 second=58 amount=-2
kerning first=87 second=44 amount=-4
kerning first=87 second=46 amount=-4
kerning first=89 second=112 amount=-4
kerning first=89 second=100 amount=-8
kerning first=89 second=79 amount=-2
kerning first=89 second=65 amount=-6
kerning first=89 second=67 amount=-4
kerning first=89 second=83 amount=-2
kerning first=89 second=117 amount=-2
kerning first=89 second=101 amount=-8
kerning first=89 second=118 amount=-6
kerning first=89 second=59 amount=-4
kerning first=89 second=58 amount=-2
kerning first=89 second=44 amount=-10
kerning first=89 second=46 amount=-10
kerning first=47 second=100 amount=-2
kerning first=47 second=97 amount=-4
kerning first=115 second=116 amount=-2
kerning first=115 second=115 amount=-2
kerning first=115 second=44 amount=-2
kerning first=115 second=46 amount=-2
kerning first=111 second=106 amount=-8
kerning first=111 second=102 amount=-2
kerning first=111 second=116 amount=-2
kerning first=111 second=97 amount=-2
kerning first=111 second=118 amount=-4
kerning first=111 second=120 amount=-2
kerning first=111 second=44 amount=-4
kerning first=111 second=46 amount=-4
kerning first=109 second=106 amount=-6
kerning first=109 second=103 amount=-2
kerning first=109 second=116 amount=-2
kerning first=109 second=97 amount=-2
kerning first=109 second=118 amount=-4
kerning first=110 second=106 amount=-6
kerning first=110 second=116 amount=-2
kerning first=110 second=118 amount=-4
kerning first=117 second=106 amount=-10
kerning first=117 second=103 amount=-2
kerning first=117 second=116 amount=-2
kerning first=117 second=97 amount=-2
kerning first=119 second=106 amount=-4
kerning first=119 second=97 amount=-2
kerning first=119 second=44 amount=-2
kerning first=119 second=46 amount=-2
kerning first=97 second=106 amount=-2
kerning first=97 second=121 amount=-2
kerning first=97 second=114 amount=2
kerning first=99 second=116 amount=-2
kerning first=99 second=97 amount=-2
kerning first=101 second=121 amount=2
kerning first=101 second=116 amount=-2
kerning first=101 second=118 amount=-2
kerning first=101 second=44 amount=-2
kerning first=101 second=46 amount=-2
kerning first=101 second=32 amount=-8
kerning first=114 second=106 amount=-8
kerning first=114 second=103 amount=-4
kerning first=114 second=100 amount=-2
kerning first=114 second=116 amount=-2
kerning first=114 second=111 amount=-2
kerning first=114 second=110 amount=-2
kerning first=114 second=97 amount=-4
kerning first=114 second=99 amount=-2
kerning first=114 second=101 amount=-2
kerning first=114 second=44 amount=-10
kerning first=114 second=46 amount=-10
kerning first=118 second=106 amount=-8
kerning first=118 second=103 amount=-4
kerning first=118 second=100 amount=-4
kerning first=118 second=111 amount=-4
kerning first=118 second=109 amount=-2
kerning first=118 second=97 amount=-4
kerning first=118 second=99 amount=-4
kerning first=118 second=101 amount=-4
kerning first=118 second=44 amount=-8
kerning first=118 second=46 amount=-8
kerning first=120 second=111 amount=-2
kerning first=120 second=97 amount=-2
kerning first=120 second=101 amount=-2
kerning first=44 second=32 amount=2
kerning first=32 second=78 amount=-6
kerning first=32 second=84 amount=-16
kerning first=32 second=111 amount=-10
kerning first=32 second=117 amount=-4
kerning first=32 second=97 amount=-2
kerning first=32 second=99 amount=-2
